{
  "runtimeTarget": {
    "name": ".NETCoreApp,Version=v3.1/win-x64",
    "signature": ""
  },
  "compilationOptions": {},
  "targets": {
    ".NETCoreApp,Version=v3.1": {},
    ".NETCoreApp,Version=v3.1/win-x64": {
      "print/1.0.0": {
        "dependencies": {
          "QRCoder": "1.3.2",
          "runtimepack.Microsoft.NETCore.App.Runtime.win-x64": "3.1.1"
        },
        "runtime": {
          "print.dll": {}
        }
      },
      "runtimepack.Microsoft.NETCore.App.Runtime.win-x64/3.1.1": {
        "runtime": {
          "Microsoft.CSharp.dll": {
            "assemblyVersion": "4.0.5.0",
            "fileVersion": "4.700.19.60801"
          },
          "Microsoft.VisualBasic.Core.dll": {
            "assemblyVersion": "10.0.5.0",
            "fileVersion": "4.700.19.60801"
          },
          "Microsoft.VisualBasic.dll": {
            "assemblyVersion": "10.0.0.0",
            "fileVersion": "4.700.19.60801"
          },
          "Microsoft.Win32.Primitives.dll": {
            "assemblyVersion": "4.1.2.0",
            "fileVersion": "4.700.19.60801"
          },
          "Microsoft.Win32.Registry.dll": {
            "assemblyVersion": "4.1.3.0",
            "fileVersion": "4.700.19.60801"
          },
          "System.AppContext.dll": {
            "assemblyVersion": "4.2.2.0",
            "fileVersion": "4.700.19.60801"
          },
          "System.Buffers.dll": {
            "assemblyVersion": "4.0.5.0",
            "fileVersion": "4.700.19.60801"
          },
          "System.Collections.Concurrent.dll": {
            "assemblyVersion": "4.0.15.0",
            "fileVersion": "4.700.19.60801"
          },
          "System.Collections.Immutable.dll": {
            "assemblyVersion": "1.2.5.0",
            "fileVersion": "4.700.19.60801"
          },
          "System.Collections.NonGeneric.dll": {
            "assemblyVersion": "4.1.2.0",
            "fileVersion": "4.700.19.60801"
          },
          "System.Collections.Specialized.dll": {
            "assemblyVersion": "4.1.2.0",
            "fileVersion": "4.700.19.60801"
          },
          "System.Collections.dll": {
            "assemblyVersion": "4.1.2.0",
            "fileVersion": "4.700.19.60801"
          },
          "System.ComponentModel.Annotations.dll": {
            "assemblyVersion": "4.3.1.0",
            "fileVersion": "4.700.19.60801"
          },
          "System.ComponentModel.DataAnnotations.dll": {
            "assemblyVersion": "4.0.0.0",
            "fileVersion": "4.700.19.60801"
          },
          "System.ComponentModel.EventBasedAsync.dll": {
            "assemblyVersion": "4.1.2.0",
            "fileVersion": "4.700.19.60801"
          },
          "System.ComponentModel.Primitives.dll": {
            "assemblyVersion": "4.2.2.0",
            "fileVersion": "4.700.19.60801"
          },
          "System.ComponentModel.TypeConverter.dll": {
            "assemblyVersion": "4.2.2.0",
            "fileVersion": "4.700.19.60801"
          },
          "System.ComponentModel.dll": {
            "assemblyVersion": "4.0.4.0",
            "fileVersion": "4.700.19.60801"
          },
          "System.Configuration.dll": {
            "assemblyVersion": "4.0.0.0",
            "fileVersion": "4.700.19.60801"
          },
          "System.Console.dll": {
            "assemblyVersion": "4.1.2.0",
            "fileVersion": "4.700.19.60801"
          },
          "System.Core.dll": {
            "assemblyVersion": "4.0.0.0",
            "fileVersion": "4.700.19.60801"
          },
          "System.Data.Common.dll": {
            "assemblyVersion": "4.2.2.0",
            "fileVersion": "4.700.19.60801"
          },
          "System.Data.DataSetExtensions.dll": {
            "assemblyVersion": "4.0.1.0",
            "fileVersion": "4.700.19.60801"
          },
          "System.Data.dll": {
            "assemblyVersion": "4.0.0.0",
            "fileVersion": "4.700.19.60801"
          },
          "System.Diagnostics.Contracts.dll": {
            "assemblyVersion": "4.0.4.0",
            "fileVersion": "4.700.19.60801"
          },
          "System.Diagnostics.Debug.dll": {
            "assemblyVersion": "4.1.2.0",
            "fileVersion": "4.700.19.60801"
          },
          "System.Diagnostics.DiagnosticSource.dll": {
            "assemblyVersion": "4.0.5.0",
            "fileVersion": "4.700.19.60801"
          },
          "System.Diagnostics.FileVersionInfo.dll": {
            "assemblyVersion": "4.0.4.0",
            "fileVersion": "4.700.19.60801"
          },
          "System.Diagnostics.Process.dll": {
            "assemblyVersion": "4.2.2.0",
            "fileVersion": "4.700.19.60801"
          },
          "System.Diagnostics.StackTrace.dll": {
            "assemblyVersion": "4.1.2.0",
            "fileVersion": "4.700.19.60801"
          },
          "System.Diagnostics.TextWriterTraceListener.dll": {
            "assemblyVersion": "4.1.2.0",
            "fileVersion": "4.700.19.60801"
          },
          "System.Diagnostics.Tools.dll": {
            "assemblyVersion": "4.1.2.0",
            "fileVersion": "4.700.19.60801"
          },
          "System.Diagnostics.TraceSource.dll": {
            "assemblyVersion": "4.1.2.0",
            "fileVersion": "4.700.19.60801"
          },
          "System.Diagnostics.Tracing.dll": {
            "assemblyVersion": "4.2.2.0",
            "fileVersion": "4.700.19.60801"
          },
          "System.Drawing.Primitives.dll": {
            "assemblyVersion": "4.2.1.0",
            "fileVersion": "4.700.19.60801"
          },
          "System.Drawing.dll": {
            "assemblyVersion": "4.0.0.0",
            "fileVersion": "4.700.19.60801"
          },
          "System.Dynamic.Runtime.dll": {
            "assemblyVersion": "4.1.2.0",
            "fileVersion": "4.700.19.60801"
          },
          "System.Globalization.Calendars.dll": {
            "assemblyVersion": "4.1.2.0",
            "fileVersion": "4.700.19.60801"
          },
          "System.Globalization.Extensions.dll": {
            "assemblyVersion": "4.1.2.0",
            "fileVersion": "4.700.19.60801"
          },
          "System.Globalization.dll": {
            "assemblyVersion": "4.1.2.0",
            "fileVersion": "4.700.19.60801"
          },
          "System.IO.Compression.Brotli.dll": {
            "assemblyVersion": "4.2.2.0",
            "fileVersion": "4.700.19.60801"
          },
          "System.IO.Compression.FileSystem.dll": {
            "assemblyVersion": "4.0.0.0",
            "fileVersion": "4.700.19.60801"
          },
          "System.IO.Compression.ZipFile.dll": {
            "assemblyVersion": "4.0.5.0",
            "fileVersion": "4.700.19.60801"
          },
          "System.IO.Compression.dll": {
            "assemblyVersion": "4.2.2.0",
            "fileVersion": "4.700.19.60801"
          },
          "System.IO.FileSystem.AccessControl.dll": {
            "assemblyVersion": "4.0.5.0",
            "fileVersion": "4.700.19.60801"
          },
          "System.IO.FileSystem.DriveInfo.dll": {
            "assemblyVersion": "4.1.2.0",
            "fileVersion": "4.700.19.60801"
          },
          "System.IO.FileSystem.Primitives.dll": {
            "assemblyVersion": "4.1.2.0",
            "fileVersion": "4.700.19.60801"
          },
          "System.IO.FileSystem.Watcher.dll": {
            "assemblyVersion": "4.1.2.0",
            "fileVersion": "4.700.19.60801"
          },
          "System.IO.FileSystem.dll": {
            "assemblyVersion": "4.1.2.0",
            "fileVersion": "4.700.19.60801"
          },
          "System.IO.IsolatedStorage.dll": {
            "assemblyVersion": "4.1.2.0",
            "fileVersion": "4.700.19.60801"
          },
          "System.IO.MemoryMappedFiles.dll": {
            "assemblyVersion": "4.1.2.0",
            "fileVersion": "4.700.19.60801"
          },
          "System.IO.Pipes.AccessControl.dll": {
            "assemblyVersion": "4.0.5.0",
            "fileVersion": "4.700.19.60801"
          },
          "System.IO.Pipes.dll": {
            "assemblyVersion": "4.1.2.0",
            "fileVersion": "4.700.19.60801"
          },
          "System.IO.UnmanagedMemoryStream.dll": {
            "assemblyVersion": "4.1.2.0",
            "fileVersion": "4.700.19.60801"
          },
          "System.IO.dll": {
            "assemblyVersion": "4.2.2.0",
            "fileVersion": "4.700.19.60801"
          },
          "System.Linq.Expressions.dll": {
            "assemblyVersion": "4.2.2.0",
            "fileVersion": "4.700.19.60801"
          },
          "System.Linq.Parallel.dll": {
            "assemblyVersion": "4.0.4.0",
            "fileVersion": "4.700.19.60801"
          },
          "System.Linq.Queryable.dll": {
            "assemblyVersion": "4.0.4.0",
            "fileVersion": "4.700.19.60801"
          },
          "System.Linq.dll": {
            "assemblyVersion": "4.2.2.0",
            "fileVersion": "4.700.19.60801"
          },
          "System.Memory.dll": {
            "assemblyVersion": "4.2.1.0",
            "fileVersion": "4.700.19.60801"
          },
          "System.Net.Http.dll": {
            "assemblyVersion": "4.2.2.0",
            "fileVersion": "4.700.19.60801"
          },
          "System.Net.HttpListener.dll": {
            "assemblyVersion": "4.0.2.0",
            "fileVersion": "4.700.19.60801"
          },
          "System.Net.Mail.dll": {
            "assemblyVersion": "4.0.2.0",
            "fileVersion": "4.700.19.60801"
          },
          "System.Net.NameResolution.dll": {
            "assemblyVersion": "4.1.2.0",
            "fileVersion": "4.700.19.60801"
          },
          "System.Net.NetworkInformation.dll": {
            "assemblyVersion": "4.2.2.0",
            "fileVersion": "4.700.19.60801"
          },
          "System.Net.Ping.dll": {
            "assemblyVersion": "4.1.2.0",
            "fileVersion": "4.700.19.60801"
          },
          "System.Net.Primitives.dll": {
            "assemblyVersion": "4.1.2.0",
            "fileVersion": "4.700.19.60801"
          },
          "System.Net.Requests.dll": {
            "assemblyVersion": "4.1.2.0",
            "fileVersion": "4.700.19.60801"
          },
          "System.Net.Security.dll": {
            "assemblyVersion": "4.1.2.0",
            "fileVersion": "4.700.19.60801"
          },
          "System.Net.ServicePoint.dll": {
            "assemblyVersion": "4.0.2.0",
            "fileVersion": "4.700.19.60801"
          },
          "System.Net.Sockets.dll": {
            "assemblyVersion": "4.2.2.0",
            "fileVersion": "4.700.19.60801"
          },
          "System.Net.WebClient.dll": {
            "assemblyVersion": "4.0.2.0",
            "fileVersion": "4.700.19.60801"
          },
          "System.Net.WebHeaderCollection.dll": {
            "assemblyVersion": "4.1.2.0",
            "fileVersion": "4.700.19.60801"
          },
          "System.Net.WebProxy.dll": {
            "assemblyVersion": "4.0.2.0",
            "fileVersion": "4.700.19.60801"
          },
          "System.Net.WebSockets.Client.dll": {
            "assemblyVersion": "4.1.2.0",
            "fileVersion": "4.700.19.60801"
          },
          "System.Net.WebSockets.dll": {
            "assemblyVersion": "4.1.2.0",
            "fileVersion": "4.700.19.60801"
          },
          "System.Net.dll": {
            "assemblyVersion": "4.0.0.0",
            "fileVersion": "4.700.19.60801"
          },
          "System.Numerics.Vectors.dll": {
            "assemblyVersion": "4.1.6.0",
            "fileVersion": "4.700.19.60801"
          },
          "System.Numerics.dll": {
            "assemblyVersion": "4.0.0.0",
            "fileVersion": "4.700.19.60801"
          },
          "System.ObjectModel.dll": {
            "assemblyVersion": "4.1.2.0",
            "fileVersion": "4.700.19.60801"
          },
          "System.Private.DataContractSerialization.dll": {
            "assemblyVersion": "4.1.5.0",
            "fileVersion": "4.700.19.60801"
          },
          "System.Private.Uri.dll": {
            "assemblyVersion": "4.0.6.0",
            "fileVersion": "4.700.19.60801"
          },
          "System.Private.Xml.Linq.dll": {
            "assemblyVersion": "4.0.2.0",
            "fileVersion": "4.700.19.60801"
          },
          "System.Private.Xml.dll": {
            "assemblyVersion": "4.0.2.0",
            "fileVersion": "4.700.19.60801"
          },
          "System.Reflection.DispatchProxy.dll": {
            "assemblyVersion": "4.0.6.0",
            "fileVersion": "4.700.19.60801"
          },
          "System.Reflection.Emit.ILGeneration.dll": {
            "assemblyVersion": "4.1.1.0",
            "fileVersion": "4.700.19.60801"
          },
          "System.Reflection.Emit.Lightweight.dll": {
            "assemblyVersion": "4.1.1.0",
            "fileVersion": "4.700.19.60801"
          },
          "System.Reflection.Emit.dll": {
            "assemblyVersion": "4.1.2.0",
            "fileVersion": "4.700.19.60801"
          },
          "System.Reflection.Extensions.dll": {
            "assemblyVersion": "4.1.2.0",
            "fileVersion": "4.700.19.60801"
          },
          "System.Reflection.Metadata.dll": {
            "assemblyVersion": "1.4.5.0",
            "fileVersion": "4.700.19.60801"
          },
          "System.Reflection.Primitives.dll": {
            "assemblyVersion": "4.1.2.0",
            "fileVersion": "4.700.19.60801"
          },
          "System.Reflection.TypeExtensions.dll": {
            "assemblyVersion": "4.1.5.0",
            "fileVersion": "4.700.19.60801"
          },
          "System.Reflection.dll": {
            "assemblyVersion": "4.2.2.0",
            "fileVersion": "4.700.19.60801"
          },
          "System.Resources.Reader.dll": {
            "assemblyVersion": "4.1.2.0",
            "fileVersion": "4.700.19.60801"
          },
          "System.Resources.ResourceManager.dll": {
            "assemblyVersion": "4.1.2.0",
            "fileVersion": "4.700.19.60801"
          },
          "System.Resources.Writer.dll": {
            "assemblyVersion": "4.1.2.0",
            "fileVersion": "4.700.19.60801"
          },
          "System.Runtime.CompilerServices.Unsafe.dll": {
            "assemblyVersion": "4.0.6.0",
            "fileVersion": "4.700.19.60801"
          },
          "System.Runtime.CompilerServices.VisualC.dll": {
            "assemblyVersion": "4.1.2.0",
            "fileVersion": "4.700.19.60801"
          },
          "System.Runtime.Extensions.dll": {
            "assemblyVersion": "4.2.2.0",
            "fileVersion": "4.700.19.60801"
          },
          "System.Runtime.Handles.dll": {
            "assemblyVersion": "4.1.2.0",
            "fileVersion": "4.700.19.60801"
          },
          "System.Runtime.InteropServices.RuntimeInformation.dll": {
            "assemblyVersion": "4.0.4.0",
            "fileVersion": "4.700.19.60801"
          },
          "System.Runtime.InteropServices.WindowsRuntime.dll": {
            "assemblyVersion": "4.0.4.0",
            "fileVersion": "4.700.19.60801"
          },
          "System.Runtime.InteropServices.dll": {
            "assemblyVersion": "4.2.2.0",
            "fileVersion": "4.700.19.60801"
          },
          "System.Runtime.Intrinsics.dll": {
            "assemblyVersion": "4.0.1.0",
            "fileVersion": "4.700.19.60801"
          },
          "System.Runtime.Loader.dll": {
            "assemblyVersion": "4.1.1.0",
            "fileVersion": "4.700.19.60801"
          },
          "System.Runtime.Numerics.dll": {
            "assemblyVersion": "4.1.2.0",
            "fileVersion": "4.700.19.60801"
          },
          "System.Runtime.Serialization.Formatters.dll": {
            "assemblyVersion": "4.0.4.0",
            "fileVersion": "4.700.19.60801"
          },
          "System.Runtime.Serialization.Json.dll": {
            "assemblyVersion": "4.0.5.0",
            "fileVersion": "4.700.19.60801"
          },
          "System.Runtime.Serialization.Primitives.dll": {
            "assemblyVersion": "4.2.2.0",
            "fileVersion": "4.700.19.60801"
          },
          "System.Runtime.Serialization.Xml.dll": {
            "assemblyVersion": "4.1.5.0",
            "fileVersion": "4.700.19.60801"
          },
          "System.Runtime.Serialization.dll": {
            "assemblyVersion": "4.0.0.0",
            "fileVersion": "4.700.19.60801"
          },
          "System.Runtime.WindowsRuntime.UI.Xaml.dll": {
            "assemblyVersion": "4.0.5.0",
            "fileVersion": "4.700.19.60801"
          },
          "System.Runtime.WindowsRuntime.dll": {
            "assemblyVersion": "4.0.15.0",
            "fileVersion": "4.700.19.60801"
          },
          "System.Runtime.dll": {
            "assemblyVersion": "4.2.2.0",
            "fileVersion": "4.700.19.60801"
          },
          "System.Security.AccessControl.dll": {
            "assemblyVersion": "4.1.3.0",
            "fileVersion": "4.700.19.60801"
          },
          "System.Security.Claims.dll": {
            "assemblyVersion": "4.1.2.0",
            "fileVersion": "4.700.19.60801"
          },
          "System.Security.Cryptography.Algorithms.dll": {
            "assemblyVersion": "4.3.2.0",
            "fileVersion": "4.700.19.60801"
          },
          "System.Security.Cryptography.Cng.dll": {
            "assemblyVersion": "4.3.3.0",
            "fileVersion": "4.700.19.60801"
          },
          "System.Security.Cryptography.Csp.dll": {
            "assemblyVersion": "4.1.2.0",
            "fileVersion": "4.700.19.60801"
          },
          "System.Security.Cryptography.Encoding.dll": {
            "assemblyVersion": "4.1.2.0",
            "fileVersion": "4.700.19.60801"
          },
          "System.Security.Cryptography.OpenSsl.dll": {
            "assemblyVersion": "4.1.3.0",
            "fileVersion": "4.700.19.60801"
          },
          "System.Security.Cryptography.Primitives.dll": {
            "assemblyVersion": "4.1.2.0",
            "fileVersion": "4.700.19.60801"
          },
          "System.Security.Cryptography.X509Certificates.dll": {
            "assemblyVersion": "4.2.2.0",
            "fileVersion": "4.700.19.60801"
          },
          "System.Security.Principal.Windows.dll": {
            "assemblyVersion": "4.1.3.0",
            "fileVersion": "4.700.19.60801"
          },
          "System.Security.Principal.dll": {
            "assemblyVersion": "4.1.2.0",
            "fileVersion": "4.700.19.60801"
          },
          "System.Security.SecureString.dll": {
            "assemblyVersion": "4.1.2.0",
            "fileVersion": "4.700.19.60801"
          },
          "System.Security.dll": {
            "assemblyVersion": "4.0.0.0",
            "fileVersion": "4.700.19.60801"
          },
          "System.ServiceModel.Web.dll": {
            "assemblyVersion": "4.0.0.0",
            "fileVersion": "4.700.19.60801"
          },
          "System.ServiceProcess.dll": {
            "assemblyVersion": "4.0.0.0",
            "fileVersion": "4.700.19.60801"
          },
          "System.Text.Encoding.CodePages.dll": {
            "assemblyVersion": "4.1.3.0",
            "fileVersion": "4.700.19.60801"
          },
          "System.Text.Encoding.Extensions.dll": {
            "assemblyVersion": "4.1.2.0",
            "fileVersion": "4.700.19.60801"
          },
          "System.Text.Encoding.dll": {
            "assemblyVersion": "4.1.2.0",
            "fileVersion": "4.700.19.60801"
          },
          "System.Text.Encodings.Web.dll": {
            "assemblyVersion": "4.0.5.0",
            "fileVersion": "4.700.19.60801"
          },
          "System.Text.Json.dll": {
            "assemblyVersion": "4.0.1.0",
            "fileVersion": "4.700.19.60801"
          },
          "System.Text.RegularExpressions.dll": {
            "assemblyVersion": "4.2.2.0",
            "fileVersion": "4.700.19.60801"
          },
          "System.Threading.Channels.dll": {
            "assemblyVersion": "4.0.2.0",
            "fileVersion": "4.700.19.60801"
          },
          "System.Threading.Overlapped.dll": {
            "assemblyVersion": "4.1.2.0",
            "fileVersion": "4.700.19.60801"
          },
          "System.Threading.Tasks.Dataflow.dll": {
            "assemblyVersion": "4.6.5.0",
            "fileVersion": "4.700.19.60801"
          },
          "System.Threading.Tasks.Extensions.dll": {
            "assemblyVersion": "4.3.1.0",
            "fileVersion": "4.700.19.60801"
          },
          "System.Threading.Tasks.Parallel.dll": {
            "assemblyVersion": "4.0.4.0",
            "fileVersion": "4.700.19.60801"
          },
          "System.Threading.Tasks.dll": {
            "assemblyVersion": "4.1.2.0",
            "fileVersion": "4.700.19.60801"
          },
          "System.Threading.Thread.dll": {
            "assemblyVersion": "4.1.2.0",
            "fileVersion": "4.700.19.60801"
          },
          "System.Threading.ThreadPool.dll": {
            "assemblyVersion": "4.1.2.0",
            "fileVersion": "4.700.19.60801"
          },
          "System.Threading.Timer.dll": {
            "assemblyVersion": "4.1.2.0",
            "fileVersion": "4.700.19.60801"
          },
          "System.Threading.dll": {
            "assemblyVersion": "4.1.2.0",
            "fileVersion": "4.700.19.60801"
          },
          "System.Transactions.Local.dll": {
            "assemblyVersion": "4.0.2.0",
            "fileVersion": "4.700.19.60801"
          },
          "System.Transactions.dll": {
            "assemblyVersion": "4.0.0.0",
            "fileVersion": "4.700.19.60801"
          },
          "System.ValueTuple.dll": {
            "assemblyVersion": "4.0.5.0",
            "fileVersion": "4.700.19.60801"
          },
          "System.Web.HttpUtility.dll": {
            "assemblyVersion": "4.0.2.0",
            "fileVersion": "4.700.19.60801"
          },
          "System.Web.dll": {
            "assemblyVersion": "4.0.0.0",
            "fileVersion": "4.700.19.60801"
          },
          "System.Windows.dll": {
            "assemblyVersion": "4.0.0.0",
            "fileVersion": "4.700.19.60801"
          },
          "System.Xml.Linq.dll": {
            "assemblyVersion": "4.0.0.0",
            "fileVersion": "4.700.19.60801"
          },
          "System.Xml.ReaderWriter.dll": {
            "assemblyVersion": "4.2.2.0",
            "fileVersion": "4.700.19.60801"
          },
          "System.Xml.Serialization.dll": {
            "assemblyVersion": "4.0.0.0",
            "fileVersion": "4.700.19.60801"
          },
          "System.Xml.XDocument.dll": {
            "assemblyVersion": "4.1.2.0",
            "fileVersion": "4.700.19.60801"
          },
          "System.Xml.XPath.XDocument.dll": {
            "assemblyVersion": "4.1.2.0",
            "fileVersion": "4.700.19.60801"
          },
          "System.Xml.XPath.dll": {
            "assemblyVersion": "4.1.2.0",
            "fileVersion": "4.700.19.60801"
          },
          "System.Xml.XmlDocument.dll": {
            "assemblyVersion": "4.1.2.0",
            "fileVersion": "4.700.19.60801"
          },
          "System.Xml.XmlSerializer.dll": {
            "assemblyVersion": "4.1.2.0",
            "fileVersion": "4.700.19.60801"
          },
          "System.Xml.dll": {
            "assemblyVersion": "4.0.0.0",
            "fileVersion": "4.700.19.60801"
          },
          "System.dll": {
            "assemblyVersion": "4.0.0.0",
            "fileVersion": "4.700.19.60801"
          },
          "WindowsBase.dll": {
            "assemblyVersion": "4.0.0.0",
            "fileVersion": "4.700.19.60801"
          },
          "mscorlib.dll": {
            "assemblyVersion": "4.0.0.0",
            "fileVersion": "4.700.19.60801"
          },
          "netstandard.dll": {
            "assemblyVersion": "2.1.0.0",
            "fileVersion": "4.700.19.60801"
          }
        },
        "native": {
          "Microsoft.DiaSymReader.Native.amd64.dll": {
            "fileVersion": "14.12.25830.2"
          },
          "SOS_README.md": {
            "fileVersion": "0.0.0.0"
          },
          "System.Private.CoreLib.dll": {
            "assemblyVersion": "4.0.0.0",
            "fileVersion": "4.700.19.60701"
          },
          "api-ms-win-core-console-l1-1-0.dll": {
            "fileVersion": "10.0.17134.12"
          },
          "api-ms-win-core-datetime-l1-1-0.dll": {
            "fileVersion": "10.0.17134.12"
          },
          "api-ms-win-core-debug-l1-1-0.dll": {
            "fileVersion": "10.0.17134.12"
          },
          "api-ms-win-core-errorhandling-l1-1-0.dll": {
            "fileVersion": "10.0.17134.12"
          },
          "api-ms-win-core-file-l1-1-0.dll": {
            "fileVersion": "10.0.17134.12"
          },
          "api-ms-win-core-file-l1-2-0.dll": {
            "fileVersion": "10.0.17134.12"
          },
          "api-ms-win-core-file-l2-1-0.dll": {
            "fileVersion": "10.0.17134.12"
          },
          "api-ms-win-core-handle-l1-1-0.dll": {
            "fileVersion": "10.0.17134.12"
          },
          "api-ms-win-core-heap-l1-1-0.dll": {
            "fileVersion": "10.0.17134.12"
          },
          "api-ms-win-core-interlocked-l1-1-0.dll": {
            "fileVersion": "10.0.17134.12"
          },
          "api-ms-win-core-libraryloader-l1-1-0.dll": {
            "fileVersion": "10.0.17134.12"
          },
          "api-ms-win-core-localization-l1-2-0.dll": {
            "fileVersion": "10.0.17134.12"
          },
          "api-ms-win-core-memory-l1-1-0.dll": {
            "fileVersion": "10.0.17134.12"
          },
          "api-ms-win-core-namedpipe-l1-1-0.dll": {
            "fileVersion": "10.0.17134.12"
          },
          "api-ms-win-core-processenvironment-l1-1-0.dll": {
            "fileVersion": "10.0.17134.12"
          },
          "api-ms-win-core-processthreads-l1-1-0.dll": {
            "fileVersion": "10.0.17134.12"
          },
          "api-ms-win-core-processthreads-l1-1-1.dll": {
            "fileVersion": "10.0.17134.12"
          },
          "api-ms-win-core-profile-l1-1-0.dll": {
            "fileVersion": "10.0.17134.12"
          },
          "api-ms-win-core-rtlsupport-l1-1-0.dll": {
            "fileVersion": "10.0.17134.12"
          },
          "api-ms-win-core-string-l1-1-0.dll": {
            "fileVersion": "10.0.17134.12"
          },
          "api-ms-win-core-synch-l1-1-0.dll": {
            "fileVersion": "10.0.17134.12"
          },
          "api-ms-win-core-synch-l1-2-0.dll": {
            "fileVersion": "10.0.17134.12"
          },
          "api-ms-win-core-sysinfo-l1-1-0.dll": {
            "fileVersion": "10.0.17134.12"
          },
          "api-ms-win-core-timezone-l1-1-0.dll": {
            "fileVersion": "10.0.17134.12"
          },
          "api-ms-win-core-util-l1-1-0.dll": {
            "fileVersion": "10.0.17134.12"
          },
          "api-ms-win-crt-conio-l1-1-0.dll": {
            "fileVersion": "10.0.17134.12"
          },
          "api-ms-win-crt-convert-l1-1-0.dll": {
            "fileVersion": "10.0.17134.12"
          },
          "api-ms-win-crt-environment-l1-1-0.dll": {
            "fileVersion": "10.0.17134.12"
          },
          "api-ms-win-crt-filesystem-l1-1-0.dll": {
            "fileVersion": "10.0.17134.12"
          },
          "api-ms-win-crt-heap-l1-1-0.dll": {
            "fileVersion": "10.0.17134.12"
          },
          "api-ms-win-crt-locale-l1-1-0.dll": {
            "fileVersion": "10.0.17134.12"
          },
          "api-ms-win-crt-math-l1-1-0.dll": {
            "fileVersion": "10.0.17134.12"
          },
          "api-ms-win-crt-multibyte-l1-1-0.dll": {
            "fileVersion": "10.0.17134.12"
          },
          "api-ms-win-crt-private-l1-1-0.dll": {
            "fileVersion": "10.0.17134.12"
          },
          "api-ms-win-crt-process-l1-1-0.dll": {
            "fileVersion": "10.0.17134.12"
          },
          "api-ms-win-crt-runtime-l1-1-0.dll": {
            "fileVersion": "10.0.17134.12"
          },
          "api-ms-win-crt-stdio-l1-1-0.dll": {
            "fileVersion": "10.0.17134.12"
          },
          "api-ms-win-crt-string-l1-1-0.dll": {
            "fileVersion": "10.0.17134.12"
          },
          "api-ms-win-crt-time-l1-1-0.dll": {
            "fileVersion": "10.0.17134.12"
          },
          "api-ms-win-crt-utility-l1-1-0.dll": {
            "fileVersion": "10.0.17134.12"
          },
          "clrcompression.dll": {
            "fileVersion": "4.700.19.60801"
          },
          "clretwrc.dll": {
            "fileVersion": "4.700.19.60701"
          },
          "clrjit.dll": {
            "fileVersion": "4.700.19.60701"
          },
          "coreclr.dll": {
            "fileVersion": "4.700.19.60701"
          },
          "dbgshim.dll": {
            "fileVersion": "4.700.19.60701"
          },
          "hostfxr.dll": {
            "fileVersion": "3.100.119.60804"
          },
          "hostpolicy.dll": {
            "fileVersion": "3.100.119.60804"
          },
          "mscordaccore.dll": {
            "fileVersion": "4.700.19.60701"
          },
          "mscordaccore_amd64_amd64_4.700.19.60701.dll": {
            "fileVersion": "4.700.19.60701"
          },
          "mscordbi.dll": {
            "fileVersion": "4.700.19.60701"
          },
          "mscorrc.debug.dll": {
            "fileVersion": "4.700.19.60701"
          },
          "mscorrc.dll": {
            "fileVersion": "4.700.19.60701"
          },
          "ucrtbase.dll": {
            "fileVersion": "10.0.17134.12"
          }
        }
      },
      "Microsoft.NETCore.Platforms/1.1.0": {},
      "Microsoft.NETCore.Targets/1.1.0": {},
      "QRCoder/1.3.2": {
        "dependencies": {
          "ZKWeb.System.Drawing": "4.0.0"
        },
        "runtime": {
          "lib/netstandard2.0/QRCoder.dll": {
            "assemblyVersion": "1.3.2.0",
            "fileVersion": "1.3.2.0"
          },
          "lib/netstandard2.0/UnityEngine.dll": {
            "assemblyVersion": "0.0.0.0",
            "fileVersion": "0.0.0.0"
          }
        }
      },
      "runtime.any.System.Collections/4.3.0": {
        "dependencies": {
          "System.Runtime": "4.3.0"
        }
      },
      "runtime.any.System.Globalization/4.3.0": {},
      "runtime.any.System.IO/4.3.0": {},
      "runtime.any.System.Reflection/4.3.0": {},
      "runtime.any.System.Reflection.Extensions/4.3.0": {},
      "runtime.any.System.Reflection.Primitives/4.3.0": {},
      "runtime.any.System.Resources.ResourceManager/4.3.0": {},
      "runtime.any.System.Runtime/4.3.0": {
        "dependencies": {
          "System.Private.Uri": "4.3.0"
        }
      },
      "runtime.any.System.Runtime.Handles/4.3.0": {},
      "runtime.any.System.Runtime.InteropServices/4.3.0": {},
      "runtime.any.System.Text.Encoding/4.3.0": {},
      "runtime.any.System.Threading.Tasks/4.3.0": {},
      "runtime.win.System.Diagnostics.Debug/4.3.0": {},
      "runtime.win.System.Runtime.Extensions/4.3.0": {
        "dependencies": {
          "System.Private.Uri": "4.3.0"
        }
      },
      "System.Collections/4.3.0": {
        "dependencies": {
          "Microsoft.NETCore.Platforms": "1.1.0",
          "Microsoft.NETCore.Targets": "1.1.0",
          "System.Runtime": "4.3.0",
          "runtime.any.System.Collections": "4.3.0"
        }
      },
      "System.Collections.NonGeneric/4.3.0": {
        "dependencies": {
          "System.Diagnostics.Debug": "4.3.0",
          "System.Globalization": "4.3.0",
          "System.Resources.ResourceManager": "4.3.0",
          "System.Runtime": "4.3.0",
          "System.Runtime.Extensions": "4.3.0",
          "System.Threading": "4.3.0"
        }
      },
      "System.Collections.Specialized/4.3.0": {
        "dependencies": {
          "System.Collections.NonGeneric": "4.3.0",
          "System.Globalization": "4.3.0",
          "System.Globalization.Extensions": "4.3.0",
          "System.Resources.ResourceManager": "4.3.0",
          "System.Runtime": "4.3.0",
          "System.Runtime.Extensions": "4.3.0",
          "System.Threading": "4.3.0"
        }
      },
      "System.ComponentModel/4.3.0": {
        "dependencies": {
          "System.Runtime": "4.3.0"
        }
      },
      "System.ComponentModel.Primitives/4.3.0": {
        "dependencies": {
          "System.ComponentModel": "4.3.0",
          "System.Resources.ResourceManager": "4.3.0",
          "System.Runtime": "4.3.0"
        }
      },
      "System.ComponentModel.TypeConverter/4.3.0": {
        "dependencies": {
          "System.Collections": "4.3.0",
          "System.Collections.NonGeneric": "4.3.0",
          "System.Collections.Specialized": "4.3.0",
          "System.ComponentModel": "4.3.0",
          "System.ComponentModel.Primitives": "4.3.0",
          "System.Globalization": "4.3.0",
          "System.Linq": "4.3.0",
          "System.Reflection": "4.3.0",
          "System.Reflection.Extensions": "4.3.0",
          "System.Reflection.Primitives": "4.3.0",
          "System.Reflection.TypeExtensions": "4.3.0",
          "System.Resources.ResourceManager": "4.3.0",
          "System.Runtime": "4.3.0",
          "System.Runtime.Extensions": "4.3.0",
          "System.Threading": "4.3.0"
        }
      },
      "System.Diagnostics.Debug/4.3.0": {
        "dependencies": {
          "Microsoft.NETCore.Platforms": "1.1.0",
          "Microsoft.NETCore.Targets": "1.1.0",
          "System.Runtime": "4.3.0",
          "runtime.win.System.Diagnostics.Debug": "4.3.0"
        }
      },
      "System.Globalization/4.3.0": {
        "dependencies": {
          "Microsoft.NETCore.Platforms": "1.1.0",
          "Microsoft.NETCore.Targets": "1.1.0",
          "System.Runtime": "4.3.0",
          "runtime.any.System.Globalization": "4.3.0"
        }
      },
      "System.Globalization.Extensions/4.3.0": {
        "dependencies": {
          "Microsoft.NETCore.Platforms": "1.1.0",
          "System.Globalization": "4.3.0",
          "System.Resources.ResourceManager": "4.3.0",
          "System.Runtime": "4.3.0",
          "System.Runtime.Extensions": "4.3.0",
          "System.Runtime.InteropServices": "4.3.0"
        }
      },
      "System.IO/4.3.0": {
        "dependencies": {
          "Microsoft.NETCore.Platforms": "1.1.0",
          "Microsoft.NETCore.Targets": "1.1.0",
          "System.Runtime": "4.3.0",
          "System.Text.Encoding": "4.3.0",
          "System.Threading.Tasks": "4.3.0",
          "runtime.any.System.IO": "4.3.0"
        }
      },
      "System.Linq/4.3.0": {
        "dependencies": {
          "System.Collections": "4.3.0",
          "System.Diagnostics.Debug": "4.3.0",
          "System.Resources.ResourceManager": "4.3.0",
          "System.Runtime": "4.3.0",
          "System.Runtime.Extensions": "4.3.0"
        }
      },
      "System.Private.Uri/4.3.0": {
        "dependencies": {
          "Microsoft.NETCore.Platforms": "1.1.0",
          "Microsoft.NETCore.Targets": "1.1.0"
        }
      },
      "System.Reflection/4.3.0": {
        "dependencies": {
          "Microsoft.NETCore.Platforms": "1.1.0",
          "Microsoft.NETCore.Targets": "1.1.0",
          "System.IO": "4.3.0",
          "System.Reflection.Primitives": "4.3.0",
          "System.Runtime": "4.3.0",
          "runtime.any.System.Reflection": "4.3.0"
        }
      },
      "System.Reflection.Extensions/4.3.0": {
        "dependencies": {
          "Microsoft.NETCore.Platforms": "1.1.0",
          "Microsoft.NETCore.Targets": "1.1.0",
          "System.Reflection": "4.3.0",
          "System.Runtime": "4.3.0",
          "runtime.any.System.Reflection.Extensions": "4.3.0"
        }
      },
      "System.Reflection.Primitives/4.3.0": {
        "dependencies": {
          "Microsoft.NETCore.Platforms": "1.1.0",
          "Microsoft.NETCore.Targets": "1.1.0",
          "System.Runtime": "4.3.0",
          "runtime.any.System.Reflection.Primitives": "4.3.0"
        }
      },
      "System.Reflection.TypeExtensions/4.3.0": {
        "dependencies": {
          "System.Reflection": "4.3.0",
          "System.Runtime": "4.3.0"
        }
      },
      "System.Resources.ResourceManager/4.3.0": {
        "dependencies": {
          "Microsoft.NETCore.Platforms": "1.1.0",
          "Microsoft.NETCore.Targets": "1.1.0",
          "System.Globalization": "4.3.0",
          "System.Reflection": "4.3.0",
          "System.Runtime": "4.3.0",
          "runtime.any.System.Resources.ResourceManager": "4.3.0"
        }
      },
      "System.Runtime/4.3.0": {
        "dependencies": {
          "Microsoft.NETCore.Platforms": "1.1.0",
          "Microsoft.NETCore.Targets": "1.1.0",
          "runtime.any.System.Runtime": "4.3.0"
        }
      },
      "System.Runtime.Extensions/4.3.0": {
        "dependencies": {
          "Microsoft.NETCore.Platforms": "1.1.0",
          "Microsoft.NETCore.Targets": "1.1.0",
          "System.Runtime": "4.3.0",
          "runtime.win.System.Runtime.Extensions": "4.3.0"
        }
      },
      "System.Runtime.Handles/4.3.0": {
        "dependencies": {
          "Microsoft.NETCore.Platforms": "1.1.0",
          "Microsoft.NETCore.Targets": "1.1.0",
          "System.Runtime": "4.3.0",
          "runtime.any.System.Runtime.Handles": "4.3.0"
        }
      },
      "System.Runtime.InteropServices/4.3.0": {
        "dependencies": {
          "Microsoft.NETCore.Platforms": "1.1.0",
          "Microsoft.NETCore.Targets": "1.1.0",
          "System.Reflection": "4.3.0",
          "System.Reflection.Primitives": "4.3.0",
          "System.Runtime": "4.3.0",
          "System.Runtime.Handles": "4.3.0",
          "runtime.any.System.Runtime.InteropServices": "4.3.0"
        }
      },
      "System.Runtime.Serialization.Primitives/4.3.0": {
        "dependencies": {
          "System.Resources.ResourceManager": "4.3.0",
          "System.Runtime": "4.3.0"
        }
      },
      "System.Text.Encoding/4.3.0": {
        "dependencies": {
          "Microsoft.NETCore.Platforms": "1.1.0",
          "Microsoft.NETCore.Targets": "1.1.0",
          "System.Runtime": "4.3.0",
          "runtime.any.System.Text.Encoding": "4.3.0"
        }
      },
      "System.Threading/4.3.0": {
        "dependencies": {
          "System.Runtime": "4.3.0",
          "System.Threading.Tasks": "4.3.0"
        }
      },
      "System.Threading.Tasks/4.3.0": {
        "dependencies": {
          "Microsoft.NETCore.Platforms": "1.1.0",
          "Microsoft.NETCore.Targets": "1.1.0",
          "System.Runtime": "4.3.0",
          "runtime.any.System.Threading.Tasks": "4.3.0"
        }
      },
      "System.Threading.Thread/4.3.0": {
        "dependencies": {
          "System.Runtime": "4.3.0"
        }
      },
      "ZKWeb.System.Drawing/4.0.0": {
        "dependencies": {
          "System.Collections.NonGeneric": "4.3.0",
          "System.Collections.Specialized": "4.3.0",
          "System.ComponentModel.TypeConverter": "4.3.0",
          "System.Runtime.InteropServices": "4.3.0",
          "System.Runtime.Serialization.Primitives": "4.3.0",
          "System.Threading.Thread": "4.3.0"
        },
        "runtime": {
          "lib/netstandard2.0/ZKWeb.System.Drawing.dll": {
            "assemblyVersion": "1.0.0.0",
            "fileVersion": "1.0.0.0"
          }
        }
      }
    }
  },
  "libraries": {
    "print/1.0.0": {
      "type": "project",
      "serviceable": false,
      "sha512": ""
    },
    "runtimepack.Microsoft.NETCore.App.Runtime.win-x64/3.1.1": {
      "type": "runtimepack",
      "serviceable": false,
      "sha512": ""
    },
    "Microsoft.NETCore.Platforms/1.1.0": {
      "type": "package",
      "serviceable": true,
      "sha512": "sha512-kz0PEW2lhqygehI/d6XsPCQzD7ff7gUJaVGPVETX611eadGsA3A877GdSlU0LRVMCTH/+P3o2iDTak+S08V2+A==",
      "path": "microsoft.netcore.platforms/1.1.0",
      "hashPath": "microsoft.netcore.platforms.1.1.0.nupkg.sha512"
    },
    "Microsoft.NETCore.Targets/1.1.0": {
      "type": "package",
      "serviceable": true,
      "sha512": "sha512-aOZA3BWfz9RXjpzt0sRJJMjAscAUm3Hoa4UWAfceV9UTYxgwZ1lZt5nO2myFf+/jetYQo4uTP7zS8sJY67BBxg==",
      "path": "microsoft.netcore.targets/1.1.0",
      "hashPath": "microsoft.netcore.targets.1.1.0.nupkg.sha512"
    },
    "QRCoder/1.3.2": {
      "type": "package",
      "serviceable": true,
      "sha512": "sha512-HoeunaqQyhoS8kxvOJuJMi+APdBSoap+7eAOjTO6pK3jz2efGOSf3bWhVBDadTdeDPgus8SLWcf4HEbmABWEHg==",
      "path": "qrcoder/1.3.2",
      "hashPath": "qrcoder.1.3.2.nupkg.sha512"
    },
    "runtime.any.System.Collections/4.3.0": {
      "type": "package",
      "serviceable": true,
      "sha512": "sha512-23g6rqftKmovn2cLeGsuHUYm0FD7pdutb0uQMJpZ3qTvq+zHkgmt6J65VtRry4WDGYlmkMa4xDACtaQ94alNag==",
      "path": "runtime.any.system.collections/4.3.0",
      "hashPath": "runtime.any.system.collections.4.3.0.nupkg.sha512"
    },
    "runtime.any.System.Globalization/4.3.0": {
      "type": "package",
      "serviceable": true,
      "sha512": "sha512-sMDBnad4rp4t7GY442Jux0MCUuKL4otn5BK6Ni0ARTXTSpRNBzZ7hpMfKSvnVSED5kYJm96YOWsqV0JH0d2uuw==",
      "path": "runtime.any.system.globalization/4.3.0",
      "hashPath": "runtime.any.system.globalization.4.3.0.nupkg.sha512"
    },
    "runtime.any.System.IO/4.3.0": {
      "type": "package",
      "serviceable": true,
      "sha512": "sha512-SDZ5AD1DtyRoxYtEcqQ3HDlcrorMYXZeCt7ZhG9US9I5Vva+gpIWDGMkcwa5XiKL0ceQKRZIX2x0XEjLX7PDzQ==",
      "path": "runtime.any.system.io/4.3.0",
      "hashPath": "runtime.any.system.io.4.3.0.nupkg.sha512"
    },
    "runtime.any.System.Reflection/4.3.0": {
      "type": "package",
      "serviceable": true,
      "sha512": "sha512-hLC3A3rI8jipR5d9k7+f0MgRCW6texsAp0MWkN/ci18FMtQ9KH7E2vDn/DH2LkxsszlpJpOn9qy6Z6/69rH6eQ==",
      "path": "runtime.any.system.reflection/4.3.0",
      "hashPath": "runtime.any.system.reflection.4.3.0.nupkg.sha512"
    },
    "runtime.any.System.Reflection.Extensions/4.3.0": {
      "type": "package",
      "serviceable": true,
      "sha512": "sha512-cPhT+Vqu52+cQQrDai/V91gubXUnDKNRvlBnH+hOgtGyHdC17aQIU64EaehwAQymd7kJA5rSrVRNfDYrbhnzyA==",
      "path": "runtime.any.system.reflection.extensions/4.3.0",
      "hashPath": "runtime.any.system.reflection.extensions.4.3.0.nupkg.sha512"
    },
    "runtime.any.System.Reflection.Primitives/4.3.0": {
      "type": "package",
      "serviceable": true,
      "sha512": "sha512-Nrm1p3armp6TTf2xuvaa+jGTTmncALWFq22CpmwRvhDf6dE9ZmH40EbOswD4GnFLrMRS0Ki6Kx5aUPmKK/hZBg==",
      "path": "runtime.any.system.reflection.primitives/4.3.0",
      "hashPath": "runtime.any.system.reflection.primitives.4.3.0.nupkg.sha512"
    },
    "runtime.any.System.Resources.ResourceManager/4.3.0": {
      "type": "package",
      "serviceable": true,
      "sha512": "sha512-Lxb89SMvf8w9p9+keBLyL6H6x/TEmc6QVsIIA0T36IuyOY3kNvIdyGddA2qt35cRamzxF8K5p0Opq4G4HjNbhQ==",
      "path": "runtime.any.system.resources.resourcemanager/4.3.0",
      "hashPath": "runtime.any.system.resources.resourcemanager.4.3.0.nupkg.sha512"
    },
    "runtime.any.System.Runtime/4.3.0": {
      "type": "package",
      "serviceable": true,
      "sha512": "sha512-fRS7zJgaG9NkifaAxGGclDDoRn9HC7hXACl52Or06a/fxdzDajWb5wov3c6a+gVSlekRoexfjwQSK9sh5um5LQ==",
      "path": "runtime.any.system.runtime/4.3.0",
      "hashPath": "runtime.any.system.runtime.4.3.0.nupkg.sha512"
    },
    "runtime.any.System.Runtime.Handles/4.3.0": {
      "type": "package",
      "serviceable": true,
      "sha512": "sha512-GG84X6vufoEzqx8PbeBKheE4srOhimv+yLtGb/JkR3Y2FmoqmueLNFU4Xx8Y67plFpltQSdK74x0qlEhIpv/CQ==",
      "path": "runtime.any.system.runtime.handles/4.3.0",
      "hashPath": "runtime.any.system.runtime.handles.4.3.0.nupkg.sha512"
    },
    "runtime.any.System.Runtime.InteropServices/4.3.0": {
      "type": "package",
      "serviceable": true,
      "sha512": "sha512-lBoFeQfxe/4eqjPi46E0LU/YaCMdNkQ8B4MZu/mkzdIAZh8RQ1NYZSj0egrQKdgdvlPFtP4STtob40r4o2DBAw==",
      "path": "runtime.any.system.runtime.interopservices/4.3.0",
      "hashPath": "runtime.any.system.runtime.interopservices.4.3.0.nupkg.sha512"
    },
    "runtime.any.System.Text.Encoding/4.3.0": {
      "type": "package",
      "serviceable": true,
      "sha512": "sha512-+ihI5VaXFCMVPJNstG4O4eo1CfbrByLxRrQQTqOTp1ttK0kUKDqOdBSTaCB2IBk/QtjDrs6+x4xuezyMXdm0HQ==",
      "path": "runtime.any.system.text.encoding/4.3.0",
      "hashPath": "runtime.any.system.text.encoding.4.3.0.nupkg.sha512"
    },
    "runtime.any.System.Threading.Tasks/4.3.0": {
      "type": "package",
      "serviceable": true,
      "sha512": "sha512-OhBAVBQG5kFj1S+hCEQ3TUHBAEtZ3fbEMgZMRNdN8A0Pj4x+5nTELEqL59DU0TjKVE6II3dqKw4Dklb3szT65w==",
      "path": "runtime.any.system.threading.tasks/4.3.0",
      "hashPath": "runtime.any.system.threading.tasks.4.3.0.nupkg.sha512"
    },
    "runtime.win.System.Diagnostics.Debug/4.3.0": {
      "type": "package",
      "serviceable": true,
      "sha512": "sha512-hHHP0WCStene2jjeYcuDkETozUYF/3sHVRHAEOgS3L15hlip24ssqCTnJC28Z03Wpo078oMcJd0H4egD2aJI8g==",
      "path": "runtime.win.system.diagnostics.debug/4.3.0",
      "hashPath": "runtime.win.system.diagnostics.debug.4.3.0.nupkg.sha512"
    },
    "runtime.win.System.Runtime.Extensions/4.3.0": {
      "type": "package",
      "serviceable": true,
      "sha512": "sha512-RkgHVhUPvzZxuUubiZe8yr/6CypRVXj0VBzaR8hsqQ8f+rUo7e4PWrHTLOCjd8fBMGWCrY//fi7Ku3qXD7oHRw==",
      "path": "runtime.win.system.runtime.extensions/4.3.0",
      "hashPath": "runtime.win.system.runtime.extensions.4.3.0.nupkg.sha512"
    },
    "System.Collections/4.3.0": {
      "type": "package",
      "serviceable": true,
      "sha512": "sha512-3Dcj85/TBdVpL5Zr+gEEBUuFe2icOnLalmEh9hfck1PTYbbyWuZgh4fmm2ysCLTrqLQw6t3TgTyJ+VLp+Qb+Lw==",
      "path": "system.collections/4.3.0",
      "hashPath": "system.collections.4.3.0.nupkg.sha512"
    },
    "System.Collections.NonGeneric/4.3.0": {
      "type": "package",
      "serviceable": true,
      "sha512": "sha512-prtjIEMhGUnQq6RnPEYLpFt8AtLbp9yq2zxOSrY7KJJZrw25Fi97IzBqY7iqssbM61Ek5b8f3MG/sG1N2sN5KA==",
      "path": "system.collections.nongeneric/4.3.0",
      "hashPath": "system.collections.nongeneric.4.3.0.nupkg.sha512"
    },
    "System.Collections.Specialized/4.3.0": {
      "type": "package",
      "serviceable": true,
      "sha512": "sha512-Epx8PoVZR0iuOnJJDzp7pWvdfMMOAvpUo95pC4ScH2mJuXkKA2Y4aR3cG9qt2klHgSons1WFh4kcGW7cSXvrxg==",
      "path": "system.collections.specialized/4.3.0",
      "hashPath": "system.collections.specialized.4.3.0.nupkg.sha512"
    },
    "System.ComponentModel/4.3.0": {
      "type": "package",
      "serviceable": true,
      "sha512": "sha512-VyGn1jGRZVfxnh8EdvDCi71v3bMXrsu8aYJOwoV7SNDLVhiEqwP86pPMyRGsDsxhXAm2b3o9OIqeETfN5qfezw==",
      "path": "system.componentmodel/4.3.0",
      "hashPath": "system.componentmodel.4.3.0.nupkg.sha512"
    },
    "System.ComponentModel.Primitives/4.3.0": {
      "type": "package",
      "serviceable": true,
      "sha512": "sha512-j8GUkCpM8V4d4vhLIIoBLGey2Z5bCkMVNjEZseyAlm4n5arcsJOeI3zkUP+zvZgzsbLTYh4lYeP/ZD/gdIAPrw==",
      "path": "system.componentmodel.primitives/4.3.0",
      "hashPath": "system.componentmodel.primitives.4.3.0.nupkg.sha512"
    },
    "System.ComponentModel.TypeConverter/4.3.0": {
      "type": "package",
      "serviceable": true,
      "sha512": "sha512-16pQ6P+EdhcXzPiEK4kbA953Fu0MNG2ovxTZU81/qsCd1zPRsKc3uif5NgvllCY598k6bI0KUyKW8fanlfaDQg==",
      "path": "system.componentmodel.typeconverter/4.3.0",
      "hashPath": "system.componentmodel.typeconverter.4.3.0.nupkg.sha512"
    },
    "System.Diagnostics.Debug/4.3.0": {
      "type": "package",
      "serviceable": true,
      "sha512": "sha512-ZUhUOdqmaG5Jk3Xdb8xi5kIyQYAA4PnTNlHx1mu9ZY3qv4ELIdKbnL/akbGaKi2RnNUWaZsAs31rvzFdewTj2g==",
      "path": "system.diagnostics.debug/4.3.0",
      "hashPath": "system.diagnostics.debug.4.3.0.nupkg.sha512"
    },
    "System.Globalization/4.3.0": {
      "type": "package",
      "serviceable": true,
      "sha512": "sha512-kYdVd2f2PAdFGblzFswE4hkNANJBKRmsfa2X5LG2AcWE1c7/4t0pYae1L8vfZ5xvE2nK/R9JprtToA61OSHWIg==",
      "path": "system.globalization/4.3.0",
      "hashPath": "system.globalization.4.3.0.nupkg.sha512"
    },
    "System.Globalization.Extensions/4.3.0": {
      "type": "package",
      "serviceable": true,
      "sha512": "sha512-FhKmdR6MPG+pxow6wGtNAWdZh7noIOpdD5TwQ3CprzgIE1bBBoim0vbR1+AWsWjQmU7zXHgQo4TWSP6lCeiWcQ==",
      "path": "system.globalization.extensions/4.3.0",
      "hashPath": "system.globalization.extensions.4.3.0.nupkg.sha512"
    },
    "System.IO/4.3.0": {
      "type": "package",
      "serviceable": true,
      "sha512": "sha512-3qjaHvxQPDpSOYICjUoTsmoq5u6QJAFRUITgeT/4gqkF1bajbSmb1kwSxEA8AHlofqgcKJcM8udgieRNhaJ5Cg==",
      "path": "system.io/4.3.0",
      "hashPath": "system.io.4.3.0.nupkg.sha512"
    },
    "System.Linq/4.3.0": {
      "type": "package",
      "serviceable": true,
      "sha512": "sha512-5DbqIUpsDp0dFftytzuMmc0oeMdQwjcP/EWxsksIz/w1TcFRkZ3yKKz0PqiYFMmEwPSWw+qNVqD7PJ889JzHbw==",
      "path": "system.linq/4.3.0",
      "hashPath": "system.linq.4.3.0.nupkg.sha512"
    },
    "System.Private.Uri/4.3.0": {
      "type": "package",
      "serviceable": true,
      "sha512": "sha512-I4SwANiUGho1esj4V4oSlPllXjzCZDE+5XXso2P03LW2vOda2Enzh8DWOxwN6hnrJyp314c7KuVu31QYhRzOGg==",
      "path": "system.private.uri/4.3.0",
      "hashPath": "system.private.uri.4.3.0.nupkg.sha512"
    },
    "System.Reflection/4.3.0": {
      "type": "package",
      "serviceable": true,
      "sha512": "sha512-KMiAFoW7MfJGa9nDFNcfu+FpEdiHpWgTcS2HdMpDvt9saK3y/G4GwprPyzqjFH9NTaGPQeWNHU+iDlDILj96aQ==",
      "path": "system.reflection/4.3.0",
      "hashPath": "system.reflection.4.3.0.nupkg.sha512"
    },
    "System.Reflection.Extensions/4.3.0": {
      "type": "package",
      "serviceable": true,
      "sha512": "sha512-rJkrJD3kBI5B712aRu4DpSIiHRtr6QlfZSQsb0hYHrDCZORXCFjQfoipo2LaMUHoT9i1B7j7MnfaEKWDFmFQNQ==",
      "path": "system.reflection.extensions/4.3.0",
      "hashPath": "system.reflection.extensions.4.3.0.nupkg.sha512"
    },
    "System.Reflection.Primitives/4.3.0": {
      "type": "package",
      "serviceable": true,
      "sha512": "sha512-5RXItQz5As4xN2/YUDxdpsEkMhvw3e6aNveFXUn4Hl/udNTCNhnKp8lT9fnc3MhvGKh1baak5CovpuQUXHAlIA==",
      "path": "system.reflection.primitives/4.3.0",
      "hashPath": "system.reflection.primitives.4.3.0.nupkg.sha512"
    },
    "System.Reflection.TypeExtensions/4.3.0": {
      "type": "package",
      "serviceable": true,
      "sha512": "sha512-7u6ulLcZbyxB5Gq0nMkQttcdBTx57ibzw+4IOXEfR+sXYQoHvjW5LTLyNr8O22UIMrqYbchJQJnos4eooYzYJA==",
      "path": "system.reflection.typeextensions/4.3.0",
      "hashPath": "system.reflection.typeextensions.4.3.0.nupkg.sha512"
    },
    "System.Resources.ResourceManager/4.3.0": {
      "type": "package",
      "serviceable": true,
      "sha512": "sha512-/zrcPkkWdZmI4F92gL/TPumP98AVDu/Wxr3CSJGQQ+XN6wbRZcyfSKVoPo17ilb3iOr0cCRqJInGwNMolqhS8A==",
      "path": "system.resources.resourcemanager/4.3.0",
      "hashPath": "system.resources.resourcemanager.4.3.0.nupkg.sha512"
    },
    "System.Runtime/4.3.0": {
      "type": "package",
      "serviceable": true,
      "sha512": "sha512-JufQi0vPQ0xGnAczR13AUFglDyVYt4Kqnz1AZaiKZ5+GICq0/1MH/mO/eAJHt/mHW1zjKBJd7kV26SrxddAhiw==",
      "path": "system.runtime/4.3.0",
      "hashPath": "system.runtime.4.3.0.nupkg.sha512"
    },
    "System.Runtime.Extensions/4.3.0": {
      "type": "package",
      "serviceable": true,
      "sha512": "sha512-guW0uK0fn5fcJJ1tJVXYd7/1h5F+pea1r7FLSOz/f8vPEqbR2ZAknuRDvTQ8PzAilDveOxNjSfr0CHfIQfFk8g==",
      "path": "system.runtime.extensions/4.3.0",
      "hashPath": "system.runtime.extensions.4.3.0.nupkg.sha512"
    },
    "System.Runtime.Handles/4.3.0": {
      "type": "package",
      "serviceable": true,
      "sha512": "sha512-OKiSUN7DmTWeYb3l51A7EYaeNMnvxwE249YtZz7yooT4gOZhmTjIn48KgSsw2k2lYdLgTKNJw/ZIfSElwDRVgg==",
      "path": "system.runtime.handles/4.3.0",
      "hashPath": "system.runtime.handles.4.3.0.nupkg.sha512"
    },
    "System.Runtime.InteropServices/4.3.0": {
      "type": "package",
      "serviceable": true,
      "sha512": "sha512-uv1ynXqiMK8mp1GM3jDqPCFN66eJ5w5XNomaK2XD+TuCroNTLFGeZ+WCmBMcBDyTFKou3P6cR6J/QsaqDp7fGQ==",
      "path": "system.runtime.interopservices/4.3.0",
      "hashPath": "system.runtime.interopservices.4.3.0.nupkg.sha512"
    },
    "System.Runtime.Serialization.Primitives/4.3.0": {
      "type": "package",
      "serviceable": true,
      "sha512": "sha512-Wz+0KOukJGAlXjtKr+5Xpuxf8+c8739RI1C+A2BoQZT+wMCCoMDDdO8/4IRHfaVINqL78GO8dW8G2lW/e45Mcw==",
      "path": "system.runtime.serialization.primitives/4.3.0",
      "hashPath": "system.runtime.serialization.primitives.4.3.0.nupkg.sha512"
    },
    "System.Text.Encoding/4.3.0": {
      "type": "package",
      "serviceable": true,
      "sha512": "sha512-BiIg+KWaSDOITze6jGQynxg64naAPtqGHBwDrLaCtixsa5bKiR8dpPOHA7ge3C0JJQizJE+sfkz1wV+BAKAYZw==",
      "path": "system.text.encoding/4.3.0",
      "hashPath": "system.text.encoding.4.3.0.nupkg.sha512"
    },
    "System.Threading/4.3.0": {
      "type": "package",
      "serviceable": true,
      "sha512": "sha512-VkUS0kOBcUf3Wwm0TSbrevDDZ6BlM+b/HRiapRFWjM5O0NS0LviG0glKmFK+hhPDd1XFeSdU1GmlLhb2CoVpIw==",
      "path": "system.threading/4.3.0",
      "hashPath": "system.threading.4.3.0.nupkg.sha512"
    },
    "System.Threading.Tasks/4.3.0": {
      "type": "package",
      "serviceable": true,
      "sha512": "sha512-LbSxKEdOUhVe8BezB/9uOGGppt+nZf6e1VFyw6v3DN6lqitm0OSn2uXMOdtP0M3W4iMcqcivm2J6UgqiwwnXiA==",
      "path": "system.threading.tasks/4.3.0",
      "hashPath": "system.threading.tasks.4.3.0.nupkg.sha512"
    },
    "System.Threading.Thread/4.3.0": {
      "type": "package",
      "serviceable": true,
      "sha512": "sha512-OHmbT+Zz065NKII/ZHcH9XO1dEuLGI1L2k7uYss+9C1jLxTC9kTZZuzUOyXHayRk+dft9CiDf3I/QZ0t8JKyBQ==",
      "path": "system.threading.thread/4.3.0",
      "hashPath": "system.threading.thread.4.3.0.nupkg.sha512"
    },
    "ZKWeb.System.Drawing/4.0.0": {
      "type": "package",
      "serviceable": true,
      "sha512": "sha512-lcw/HyN/nOstmAWFBnokLT/LXUbY3Dsu9VP4z/V7XIVHfM3V3/kORZ4DfYw2X9LdEYDO2xMX12kj/aZ5aIpLHw==",
      "path": "zkweb.system.drawing/4.0.0",
      "hashPath": "zkweb.system.drawing.4.0.0.nupkg.sha512"
    }
  }
}